Solución Taller 1: Preprocesamiento y visualización de datos UNIVERSIDAD DEL VALLE – FACULTAD DE INGENIERIA Machine Leraning para Gestión Financiera
…
# A tibble: 326 × 3
   Variable  Fila Valor
   <chr>    <int> <int>
 1 duration     2    48
 2 duration    12    48
 3 duration    30    60
 4 duration    36    45
 5 duration    37    48
 6 duration    45    48
 7 duration    64    48
 8 duration    79    54
 9 duration    96    54
10 duration   116    48
# ℹ 316 more rows
…
